%YAML 1.1
%TAG !u! tag:unity3d.com,2011:
--- !u!29 &1
OcclusionCullingSettings:
  m_ObjectHideFlags: 0
  serializedVersion: 2
  m_OcclusionBakeSettings:
    smallestOccluder: 5
    smallestHole: 0.25
    backfaceThreshold: 100
  m_SceneGUID: 00000000000000000000000000000000
  m_OcclusionCullingData: {fileID: 0}
--- !u!104 &2
RenderSettings:
  m_ObjectHideFlags: 0
  serializedVersion: 7
  m_Fog: 0
  m_FogColor: {r: 0.5, g: 0.5, b: 0.5, a: 1}
  m_FogMode: 3
  m_FogDensity: 0.01
  m_LinearFogStart: 0
  m_LinearFogEnd: 300
  m_AmbientSkyColor: {r: 0.7607843, g: 0.7607843, b: 0.7607843, a: 1}
  m_AmbientEquatorColor: {r: 0.5294118, g: 0.6117647, b: 0.7176471, a: 1}
  m_AmbientGroundColor: {r: 0.7725491, g: 0.80392164, b: 0.8313726, a: 1}
  m_AmbientIntensity: 1
  m_AmbientMode: 1
  m_SkyboxMaterial: {fileID: 10304, guid: 0000000000000000f000000000000000, type: 0}
  m_HaloStrength: 0.5
  m_FlareStrength: 1
  m_FlareFadeSpeed: 3
  m_HaloTexture: {fileID: 0}
  m_SpotCookie: {fileID: 10001, guid: 0000000000000000e000000000000000, type: 0}
  m_DefaultReflectionMode: 0
  m_DefaultReflectionResolution: 128
  m_ReflectionBounces: 1
  m_ReflectionIntensity: 0.5512
  m_CustomReflection: {fileID: 8900000, guid: e9eea077df8ab4e2d90b2a835649ea96, type: 2}
  m_Sun: {fileID: 1780958682}
  m_IndirectSpecularColor: {r: 0.33805504, g: 0.37427628, b: 0.4218407, a: 0.5512}
--- !u!157 &4
LightmapSettings:
  m_ObjectHideFlags: 0
  serializedVersion: 7
  m_GIWorkflowMode: 1
  m_GISettings:
    serializedVersion: 2
    m_BounceScale: 1
    m_IndirectOutputScale: 3
    m_AlbedoBoost: 3
    m_TemporalCoherenceThreshold: 1
    m_EnvironmentLightingMode: 1
    m_EnableBakedLightmaps: 1
    m_EnableRealtimeLightmaps: 0
  m_LightmapEditorSettings:
    serializedVersion: 4
    m_Resolution: 2
    m_BakeResolution: 20
    m_TextureWidth: 1024
    m_TextureHeight: 1024
    m_AO: 1
    m_AOMaxDistance: 4
    m_CompAOExponent: 1
    m_CompAOExponentDirect: 0
    m_Padding: 2
    m_LightmapParameters: {fileID: 15201, guid: 0000000000000000f000000000000000,
      type: 0}
    m_LightmapsBakeMode: 1
    m_TextureCompression: 1
    m_DirectLightInLightProbes: 0
    m_FinalGather: 0
    m_FinalGatherFiltering: 1
    m_FinalGatherRayCount: 1024
    m_ReflectionCompression: 2
  m_LightingDataAsset: {fileID: 112000001, guid: 568e94d182ce41e46b9727fa5d4561d4,
    type: 2}
  m_RuntimeCPUUsage: 25
--- !u!196 &5
NavMeshSettings:
  serializedVersion: 2
  m_ObjectHideFlags: 0
  m_BuildSettings:
    serializedVersion: 2
    agentTypeID: 0
    agentRadius: 0.5
    agentHeight: 2
    agentSlope: 45
    agentClimb: 0.4
    ledgeDropHeight: 0
    maxJumpAcrossDistance: 0
    minRegionArea: 2
    manualCellSize: 0
    cellSize: 0.16666667
    accuratePlacement: 0
  m_NavMeshData: {fileID: 0}
--- !u!1001 &450070133
Prefab:
  m_ObjectHideFlags: 0
  serializedVersion: 2
  m_Modification:
    m_TransformParent: {fileID: 0}
    m_Modifications:
    - target: {fileID: 4682171506333678, guid: b9195f1fa1fcf0a45a6bf38e5df577f4, type: 2}
      propertyPath: m_LocalPosition.x
      value: 0
      objectReference: {fileID: 0}
    - target: {fileID: 4682171506333678, guid: b9195f1fa1fcf0a45a6bf38e5df577f4, type: 2}
      propertyPath: m_LocalPosition.y
      value: 0
      objectReference: {fileID: 0}
    - target: {fileID: 4682171506333678, guid: b9195f1fa1fcf0a45a6bf38e5df577f4, type: 2}
      propertyPath: m_LocalPosition.z
      value: 0
      objectReference: {fileID: 0}
    - target: {fileID: 4682171506333678, guid: b9195f1fa1fcf0a45a6bf38e5df577f4, type: 2}
      propertyPath: m_LocalRotation.x
      value: 0
      objectReference: {fileID: 0}
    - target: {fileID: 4682171506333678, guid: b9195f1fa1fcf0a45a6bf38e5df577f4, type: 2}
      propertyPath: m_LocalRotation.y
      value: 0
      objectReference: {fileID: 0}
    - target: {fileID: 4682171506333678, guid: b9195f1fa1fcf0a45a6bf38e5df577f4, type: 2}
      propertyPath: m_LocalRotation.z
      value: 0
      objectReference: {fileID: 0}
    - target: {fileID: 4682171506333678, guid: b9195f1fa1fcf0a45a6bf38e5df577f4, type: 2}
      propertyPath: m_LocalRotation.w
      value: 1
      objectReference: {fileID: 0}
    - target: {fileID: 4682171506333678, guid: b9195f1fa1fcf0a45a6bf38e5df577f4, type: 2}
      propertyPath: m_RootOrder
      value: 0
      objectReference: {fileID: 0}
    - target: {fileID: 4892365594045778, guid: b9195f1fa1fcf0a45a6bf38e5df577f4, type: 2}
      propertyPath: m_LocalRotation.x
      value: 0.6156454
      objectReference: {fileID: 0}
    - target: {fileID: 4892365594045778, guid: b9195f1fa1fcf0a45a6bf38e5df577f4, type: 2}
      propertyPath: m_LocalRotation.y
      value: 0.3478244
      objectReference: {fileID: 0}
    - target: {fileID: 4892365594045778, guid: b9195f1fa1fcf0a45a6bf38e5df577f4, type: 2}
      propertyPath: m_LocalRotation.z
      value: 0.34782186
      objectReference: {fileID: 0}
    - target: {fileID: 4892365594045778, guid: b9195f1fa1fcf0a45a6bf38e5df577f4, type: 2}
      propertyPath: m_LocalRotation.w
      value: -0.61564505
      objectReference: {fileID: 0}
    m_RemovedComponents: []
  m_ParentPrefab: {fileID: 100100000, guid: b9195f1fa1fcf0a45a6bf38e5df577f4, type: 2}
  m_IsPrefabParent: 0
--- !u!1001 &1374465442
Prefab:
  m_ObjectHideFlags: 0
  serializedVersion: 2
  m_Modification:
    m_TransformParent: {fileID: 0}
    m_Modifications:
    - target: {fileID: 4813263293881332, guid: 375acb63dea57a24e9f690fe59a130bd, type: 2}
      propertyPath: m_LocalPosition.x
      value: -10.03
      objectReference: {fileID: 0}
    - target: {fileID: 4813263293881332, guid: 375acb63dea57a24e9f690fe59a130bd, type: 2}
      propertyPath: m_LocalPosition.y
      value: 0
      objectReference: {fileID: 0}
    - target: {fileID: 4813263293881332, guid: 375acb63dea57a24e9f690fe59a130bd, type: 2}
      propertyPath: m_LocalPosition.z
      value: -4.92
      objectReference: {fileID: 0}
    - target: {fileID: 4813263293881332, guid: 375acb63dea57a24e9f690fe59a130bd, type: 2}
      propertyPath: m_LocalRotation.x
      value: -0
      objectReference: {fileID: 0}
    - target: {fileID: 4813263293881332, guid: 375acb63dea57a24e9f690fe59a130bd, type: 2}
      propertyPath: m_LocalRotation.y
      value: -0
      objectReference: {fileID: 0}
    - target: {fileID: 4813263293881332, guid: 375acb63dea57a24e9f690fe59a130bd, type: 2}
      propertyPath: m_LocalRotation.z
      value: -0
      objectReference: {fileID: 0}
    - target: {fileID: 4813263293881332, guid: 375acb63dea57a24e9f690fe59a130bd, type: 2}
      propertyPath: m_LocalRotation.w
      value: 1
      objectReference: {fileID: 0}
    - target: {fileID: 4813263293881332, guid: 375acb63dea57a24e9f690fe59a130bd, type: 2}
      propertyPath: m_RootOrder
      value: 5
      objectReference: {fileID: 0}
    - target: {fileID: 4374736105520642, guid: 375acb63dea57a24e9f690fe59a130bd, type: 2}
      propertyPath: m_RootOrder
      value: 2
      objectReference: {fileID: 0}
    - target: {fileID: 23225952126137378, guid: 375acb63dea57a24e9f690fe59a130bd,
        type: 2}
      propertyPath: m_Materials.Array.data[0]
      value: 
      objectReference: {fileID: 2100000, guid: 6ec06ae69c7560f47903261653a77dbb, type: 2}
    - target: {fileID: 1184552362089634, guid: 375acb63dea57a24e9f690fe59a130bd, type: 2}
      propertyPath: m_IsActive
      value: 0
      objectReference: {fileID: 0}
    - target: {fileID: 1194785812107110, guid: 375acb63dea57a24e9f690fe59a130bd, type: 2}
      propertyPath: m_IsActive
      value: 0
      objectReference: {fileID: 0}
    - target: {fileID: 1248723411501452, guid: 375acb63dea57a24e9f690fe59a130bd, type: 2}
      propertyPath: m_IsActive
      value: 0
      objectReference: {fileID: 0}
    m_RemovedComponents: []
  m_ParentPrefab: {fileID: 100100000, guid: 375acb63dea57a24e9f690fe59a130bd, type: 2}
  m_IsPrefabParent: 0
--- !u!1 &1780958681
GameObject:
  m_ObjectHideFlags: 0
  m_PrefabParentObject: {fileID: 0}
  m_PrefabInternal: {fileID: 0}
  serializedVersion: 5
  m_Component:
  - component: {fileID: 1780958683}
  - component: {fileID: 1780958682}
  m_Layer: 0
  m_Name: Directional Light
  m_TagString: Untagged
  m_Icon: {fileID: 0}
  m_NavMeshLayer: 0
  m_StaticEditorFlags: 0
  m_IsActive: 1
--- !u!108 &1780958682
Light:
  m_ObjectHideFlags: 0
  m_PrefabParentObject: {fileID: 0}
  m_PrefabInternal: {fileID: 0}
  m_GameObject: {fileID: 1780958681}
  m_Enabled: 1
  serializedVersion: 7
  m_Type: 1
  m_Color: {r: 0.9123594, g: 0.9826803, b: 0.99264705, a: 1}
  m_Intensity: 2
  m_Range: 10
  m_SpotAngle: 30
  m_CookieSize: 10
  m_Shadows:
    m_Type: 2
    m_Resolution: -1
    m_CustomResolution: -1
    m_Strength: 1
    m_Bias: 0.05
    m_NormalBias: 0.4
    m_NearPlane: 0.2
  m_Cookie: {fileID: 0}
  m_DrawHalo: 0
  m_Flare: {fileID: 0}
  m_RenderMode: 1
  m_CullingMask:
    serializedVersion: 2
    m_Bits: 4294967295
  m_Lightmapping: 2
  m_AreaSize: {x: 1, y: 1}
  m_BounceIntensity: 1.6
  m_ShadowRadius: 0
  m_ShadowAngle: 0
--- !u!4 &1780958683
Transform:
  m_ObjectHideFlags: 0
  m_PrefabParentObject: {fileID: 0}
  m_PrefabInternal: {fileID: 0}
  m_GameObject: {fileID: 1780958681}
  m_LocalRotation: {x: 0.07291788, y: -0.8825611, z: 0.14593174, w: 0.44099084}
  m_LocalPosition: {x: 8.55, y: 16.72, z: -41.67}
  m_LocalScale: {x: 1, y: 1, z: 1}
  m_Children: []
  m_Father: {fileID: 0}
  m_RootOrder: 1
  m_LocalEulerAnglesHint: {x: 0, y: 0, z: 0}
